{
  "status": "success",
  "code": "200",
  "message": "Productos obtenidos exitosamente",
  "data": [
    {
      "id": "prod_001",
      "category_name": "Electrónica",
      "name": "Laptop UltraSlim",
      "description": "Laptop ligera con pantalla de 14 pulgadas y 16GB RAM",
      "price": 1299.99,
      "image_url": "https://ejemplo.com/laptop.jpg",
      "is_available": true,
      "created_at": "2024-01-15T10:30:00Z",
      "updated_at": "2024-01-20T14:25:00Z"
    },
    {
      "id": "prod_002",
      "category_name": "Electrónica",
      "name": "Auriculares Bluetooth",
      "description": "Auriculares con cancelación de ruido y 30h de batería",
      "price": 199.50,
      "image_url": "https://ejemplo.com/auriculares.jpg",
      "is_available": true,
      "created_at": "2024-02-10T09:15:00Z",
      "updated_at": "2024-02-10T09:15:00Z"
    },
    {
      "id": "prod_003",
      "category_name": "Hogar",
      "name": "Cafetera Programable",
      "description": "Cafetera con temporizador y capacidad para 12 tazas",
      "price": 89.99,
      "image_url": "https://ejemplo.com/cafetera.jpg",
      "is_available": true,
      "created_at": "2024-01-22T16:45:00Z",
      "updated_at": "2024-03-05T11:20:00Z"
    },
    {
      "id": "prod_004",
      "category_name": "Ropa",
      "name": "Chaqueta Impermeable",
      "description": "Chaqueta para lluvia con capucha desmontable",
      "price": 75.00,
      "image_url": null,
      "is_available": true,
      "created_at": "2024-03-01T12:00:00Z",
      "updated_at": "2024-03-01T12:00:00Z"
    },
    {
      "id": "prod_005",
      "category_name": "Deportes",
      "name": "Pelota de Fútbol",
      "description": "Pelota oficial tamaño 5 para competición",
      "price": 34.99,
      "image_url": "https://ejemplo.com/pelota.jpg",
      "is_available": true,
      "created_at": "2024-02-28T14:30:00Z",
      "updated_at": "2024-02-28T14:30:00Z"
    },
    {
      "id": "prod_006",
      "category_name": "Libros",
      "name": "Novela Best Seller",
      "description": "La última novela del autor más vendido del año",
      "price": 24.95,
      "image_url": "https://ejemplo.com/libro.jpg",
      "is_available": false,
      "created_at": "2024-01-05T08:00:00Z",
      "updated_at": "2024-02-15T10:00:00Z"
    },
    {
      "id": "prod_007",
      "category_name": "Juguetes",
      "name": "Set de Construcción",
      "description": "Set de 500 piezas para construir 10 modelos diferentes",
      "price": 59.99,
      "image_url": "https://ejemplo.com/construccion.jpg",
      "is_available": true,
      "created_at": "2024-03-10T13:20:00Z",
      "updated_at": "2024-03-10T13:20:00Z"
    },
    {
      "id": "prod_008",
      "category_name": "Electrónica",
      "name": "Smartwatch Pro",
      "description": "Reloj inteligente con monitor de ritmo cardíaco y GPS",
      "price": 299.99,
      "image_url": "https://ejemplo.com/smartwatch.jpg",
      "is_available": true,
      "created_at": "2024-02-01T11:10:00Z",
      "updated_at": "2024-02-25T09:45:00Z"
    },
    {
      "id": "prod_009",
      "category_name": "Hogar",
      "name": "Aspiradora Robot",
      "description": "Aspiradora automática con mapeo de habitaciones",
      "price": 349.95,
      "image_url": "https://ejemplo.com/aspiradora.jpg",
      "is_available": true,
      "created_at": "2024-03-12T15:30:00Z",
      "updated_at": "2024-03-12T15:30:00Z"
    },
    {
      "id": "prod_010",
      "category_name": "Ropa",
      "name": "Zapatos Running",
      "description": "Zapatillas deportivas con amortiguación de gel",
      "price": 120.00,
      "image_url": null,
      "is_available": true,
      "created_at": "2024-02-18T10:00:00Z",
      "updated_at": "2024-02-18T10:00:00Z"
    }
  ],
  "meta": {
    "limit": 10,
    "current_page": 1,
    "total_pages": 2,
    "total_items": 12,
    "has_next": true,
    "has_prev": false,
    "order_by": "created_at",
    "sortDirection": "DESC"
  }
}